C:\Users\Acer\Desktop\OOP2\JavaSwing\src\main\java\ComboBoxExample1.java
C:\Users\Acer\Desktop\OOP2\JavaSwing\src\main\java\JTextPaneExample.java
C:\Users\Acer\Desktop\OOP2\JavaSwing\src\main\java\ColorChooserExample1.java
C:\Users\Acer\Desktop\OOP2\JavaSwing\src\main\java\JEditorPaneExample1.java
C:\Users\Acer\Desktop\OOP2\JavaSwing\src\main\java\TableExample1.java
C:\Users\Acer\Desktop\OOP2\JavaSwing\src\main\java\FirstSwingExample.java
C:\Users\Acer\Desktop\OOP2\JavaSwing\src\main\java\SpinnerExample.java
C:\Users\Acer\Desktop\OOP2\JavaSwing\src\main\java\SpinnerExample1.java
C:\Users\Acer\Desktop\OOP2\JavaSwing\src\main\java\Simple2.java
C:\Users\Acer\Desktop\OOP2\JavaSwing\src\main\java\MenuExample1.java
C:\Users\Acer\Desktop\OOP2\JavaSwing\src\main\java\ScrollBarExample1.java
C:\Users\Acer\Desktop\OOP2\JavaSwing\src\main\java\FileChooserExample.java
C:\Users\Acer\Desktop\OOP2\JavaSwing\src\main\java\JRootPaneExample.java
C:\Users\Acer\Desktop\OOP2\JavaSwing\src\main\java\PopupMenuExample1.java
C:\Users\Acer\Desktop\OOP2\JavaSwing\src\main\java\JEditorPaneExample.java
C:\Users\Acer\Desktop\OOP2\JavaSwing\src\main\java\ComboBoxExample.java
C:\Users\Acer\Desktop\OOP2\JavaSwing\src\main\java\ButtonExample1.java
C:\Users\Acer\Desktop\OOP2\JavaSwing\src\main\java\JScrollPaneExample.java
C:\Users\Acer\Desktop\OOP2\JavaSwing\src\main\java\ButtonExample.java
C:\Users\Acer\Desktop\OOP2\JavaSwing\src\main\java\TextAreaExample1.java
C:\Users\Acer\Desktop\OOP2\JavaSwing\src\main\java\LayeredPaneExample.java
C:\Users\Acer\Desktop\OOP2\JavaSwing\src\main\java\SeparatorExample.java
C:\Users\Acer\Desktop\OOP2\JavaSwing\src\main\java\JToolBarExample.java
C:\Users\Acer\Desktop\OOP2\JavaSwing\src\main\java\SeparatorExample1.java
C:\Users\Acer\Desktop\OOP2\JavaSwing\src\main\java\DialogExample.java
C:\Users\Acer\Desktop\OOP2\JavaSwing\src\main\java\CheckBoxExample.java
C:\Users\Acer\Desktop\OOP2\JavaSwing\src\main\java\RadioButtonExample.java
C:\Users\Acer\Desktop\OOP2\JavaSwing\src\main\java\PasswordFieldExample.java
C:\Users\Acer\Desktop\OOP2\JavaSwing\src\main\java\JSplitPaneExample.java
C:\Users\Acer\Desktop\OOP2\JavaSwing\src\main\java\TreeExample.java
C:\Users\Acer\Desktop\OOP2\JavaSwing\src\main\java\PopupMenuExample.java
C:\Users\Acer\Desktop\OOP2\JavaSwing\src\main\java\CheckBoxExample2.java
C:\Users\Acer\Desktop\OOP2\JavaSwing\src\main\java\Simple.java
C:\Users\Acer\Desktop\OOP2\JavaSwing\src\main\java\TextFieldExample1.java
C:\Users\Acer\Desktop\OOP2\JavaSwing\src\main\java\JComponentExample.java
C:\Users\Acer\Desktop\OOP2\JavaSwing\src\main\java\ColorChooserExample.java
C:\Users\Acer\Desktop\OOP2\JavaSwing\src\main\java\OptionPaneExample3.java
C:\Users\Acer\Desktop\OOP2\JavaSwing\src\main\java\ProgressBarExample.java
C:\Users\Acer\Desktop\OOP2\JavaSwing\src\main\java\TextAreaExample.java
C:\Users\Acer\Desktop\OOP2\JavaSwing\src\main\java\TabbedPaneExample.java
C:\Users\Acer\Desktop\OOP2\JavaSwing\src\main\java\CheckBoxExample1.java
C:\Users\Acer\Desktop\OOP2\JavaSwing\src\main\java\ScrollBarExample.java
C:\Users\Acer\Desktop\OOP2\JavaSwing\src\main\java\JavaCheckBoxMenuItem.java
C:\Users\Acer\Desktop\OOP2\JavaSwing\src\main\java\ViewPortClass2.java
C:\Users\Acer\Desktop\OOP2\JavaSwing\src\main\java\RadioButtonExample1.java
C:\Users\Acer\Desktop\OOP2\JavaSwing\src\main\java\OptionPaneExample2.java
C:\Users\Acer\Desktop\OOP2\JavaSwing\src\main\java\PasswordFieldExample1.java
C:\Users\Acer\Desktop\OOP2\JavaSwing\src\main\java\JFrameExample.java
C:\Users\Acer\Desktop\OOP2\JavaSwing\src\main\java\JToggleButtonExample.java
C:\Users\Acer\Desktop\OOP2\JavaSwing\src\main\java\TableExample.java
C:\Users\Acer\Desktop\OOP2\JavaSwing\src\main\java\OptionPaneExample1.java
C:\Users\Acer\Desktop\OOP2\JavaSwing\src\main\java\LabelExample.java
C:\Users\Acer\Desktop\OOP2\JavaSwing\src\main\java\TextFieldExample.java
C:\Users\Acer\Desktop\OOP2\JavaSwing\src\main\java\JDPaneDemo.java
C:\Users\Acer\Desktop\OOP2\JavaSwing\src\main\java\ButtonExample2.java
C:\Users\Acer\Desktop\OOP2\JavaSwing\src\main\java\OptionPaneExample.java
C:\Users\Acer\Desktop\OOP2\JavaSwing\src\main\java\MenuExample.java
C:\Users\Acer\Desktop\OOP2\JavaSwing\src\main\java\SliderExample1.java
C:\Users\Acer\Desktop\OOP2\JavaSwing\src\main\java\LabelExample1.java
C:\Users\Acer\Desktop\OOP2\JavaSwing\src\main\java\PanelExample.java
C:\Users\Acer\Desktop\OOP2\JavaSwing\src\main\java\IconExample.java
C:\Users\Acer\Desktop\OOP2\JavaSwing\src\main\java\SliderExample.java
C:\Users\Acer\Desktop\OOP2\JavaSwing\src\main\java\ListExample.java
C:\Users\Acer\Desktop\OOP2\JavaSwing\src\main\java\ListExample1.java
C:\Users\Acer\Desktop\OOP2\JavaSwing\src\main\java\ToolTipExample.java
